Adafruit_MCP23008.cpp:37:6:void Adafruit_MCP23008::begin(uint8_t)	16	static
Adafruit_MCP23008.cpp:76:6:void Adafruit_MCP23008::begin()	0	static
Adafruit_MCP23008.cpp:206:6:void Adafruit_MCP23008::write8(uint8_t, uint8_t)	16	static
Adafruit_MCP23008.cpp:188:9:uint8_t Adafruit_MCP23008::read8(uint8_t)	16	static
Adafruit_MCP23008.cpp:218:6:void Adafruit_MCP23008::repair()	0	static
Adafruit_MCP23008.cpp:80:6:void Adafruit_MCP23008::pinModeAll(uint8_t)	16	static
Adafruit_MCP23008.cpp:100:6:void Adafruit_MCP23008::pinMode(uint8_t, uint8_t)	16	static
Adafruit_MCP23008.cpp:122:9:uint8_t Adafruit_MCP23008::readGPIO()	8	static
Adafruit_MCP23008.cpp:128:6:void Adafruit_MCP23008::writeGPIO(uint8_t)	16	static
Adafruit_MCP23008.cpp:134:6:void Adafruit_MCP23008::digitalWrite(uint8_t, uint8_t)	16	static
Adafruit_MCP23008.cpp:157:6:void Adafruit_MCP23008::pullUp(uint8_t, uint8_t)	16	static
Adafruit_MCP23008.cpp:177:9:uint8_t Adafruit_MCP23008::digitalRead(uint8_t)	16	static
